{
  "dataInfo": {
    "info": [
      {
        "area": "45.43",
        "blockName": "周家嘴路",
        "communityAddress": "内江一村（控江路451号）",
        "communityName": "内江一村",
        "detailWeb": "https://sh.lianjia.com/zufang/107100364069.html",
        "fitment": "null",
        "floor": "中区",
        "hallType": "1",
        "houseID": "8693594",
        "houseResourceType": "1",
        "logoSrc": "../img/lianjia.png",
        "price": "4500",
        "regionName": "杨浦",
        "rentType": "整租",
        "roomType": "2",
        "shortCompanyName": "链家"
      },
      {
        "area": "35.53",
        "blockName": "打浦桥",
        "communityAddress": "瞿溪路1072弄",
        "communityName": "南园新村",
        "detailWeb": "https://sh.lianjia.com/zufang/107100365082.html",
        "fitment": "null",
        "floor": "低区",
        "hallType": "1",
        "houseID": "8693644",
        "houseResourceType": "1",
        "logoSrc": "../img/lianjia.png",
        "price": "4300",
        "regionName": "黄浦",
        "rentType": "整租",
        "roomType": "1",
        "shortCompanyName": "链家"
      },
      {
        "area": "44.2",
        "blockName": "徐家汇",
        "communityAddress": "南丹东路100弄,斜土路2561弄",
        "communityName": "王家堂小区",
        "detailWeb": "https://sh.lianjia.com/zufang/107100365264.html",
        "fitment": "null",
        "floor": "中区",
        "hallType": "0",
        "houseID": "8693650",
        "houseResourceType": "1",
        "logoSrc": "../img/lianjia.png",
        "price": "5500",
        "regionName": "徐汇",
        "rentType": "整租",
        "roomType": "2",
        "shortCompanyName": "链家"
      },
      {
        "area": "40",
        "blockName": "北蒙三小区",
        "communityAddress": "黄浦区丽园路842弄",
        "communityName": "北蒙三小区",
        "detailWeb": "http://www.sinyi.com.cn/Secondary.aspx?id=SZW00048673",
        "fitment": "精装",
        "floor": "低区",
        "hallType": "1",
        "houseID": "8693769",
        "houseResourceType": "1",
        "logoSrc": "../img/logo_xy.png",
        "price": "5800",
        "regionName": "黄浦",
        "rentType": "整租",
        "roomType": "1",
        "shortCompanyName": "信义房屋"
      },
      {
        "area": "68",
        "blockName": "碧云",
        "communityAddress": "罗山路1507弄",
        "communityName": "星云小区",
        "detailWeb": "http://www.taiwu.com/cz/12103/",
        "fitment": "精装",
        "floor": "中",
        "hallType": "1",
        "houseID": "8692829",
        "houseResourceType": "1",
        "logoSrc": "../img/tpy.png",
        "price": "5000",
        "regionName": "浦东",
        "rentType": "整租",
        "roomType": "1",
        "shortCompanyName": "太平洋房屋"
      },
      {
        "area": "35",
        "blockName": "老西门",
        "communityAddress": "西凌家宅新村",
        "communityName": "西凌家宅新村",
        "detailWeb": "http://sh.koofang.com/zufang/1897997.html",
        "fitment": "精装",
        "floor": "中区",
        "hallType": "1",
        "houseID": "8692844",
        "houseResourceType": "1",
        "logoSrc": "../img/21c.png",
        "price": "4500",
        "regionName": "黄浦",
        "rentType": "整租",
        "roomType": "1",
        "shortCompanyName": "21世纪不动产"
      },
      {
        "area": "78",
        "blockName": "外高桥",
        "communityAddress": "夏碧路80弄",
        "communityName": "富特四村(夏碧路80弄)",
        "detailWeb": "http://sh.centanet.com/zufang/SHPDZ000128999.html",
        "fitment": "简装",
        "floor": "高区",
        "hallType": "1",
        "houseID": "8692851",
        "houseResourceType": "1",
        "logoSrc": "../img/zhongyuan.png",
        "price": "4500",
        "regionName": "浦东",
        "rentType": "整租",
        "roomType": "3",
        "shortCompanyName": "中原地产"
      },
      {
        "area": "55",
        "blockName": "潍坊",
        "communityAddress": "潍坊二村1-94号",
        "communityName": "潍坊二村",
        "detailWeb": "https://sh.5i5j.com/zufang/25785104.html",
        "fitment": "简装",
        "floor": "高",
        "hallType": "1",
        "houseID": "8692615",
        "houseResourceType": "1",
        "logoSrc": "../img/5i5j.png",
        "price": "5000",
        "regionName": "浦东",
        "rentType": "整租",
        "roomType": "2",
        "shortCompanyName": "我爱我家"
      },
      {
        "area": "49",
        "blockName": "潍坊",
        "communityAddress": "浦东新区潍坊七村703-749号",
        "communityName": "潍坊七村",
        "detailWeb": "https://sh.5i5j.com/zufang/38089326.html",
        "fitment": "简装",
        "floor": "中",
        "hallType": "1",
        "houseID": "8693657",
        "houseResourceType": "1",
        "logoSrc": "../img/5i5j.png",
        "price": "5400",
        "regionName": "浦东",
        "rentType": "整租",
        "roomType": "2",
        "shortCompanyName": "我爱我家"
      },
      {
        "area": "45",
        "blockName": "万体馆",
        "communityAddress": "天钥新村1-182号",
        "communityName": "天钥新村",
        "detailWeb": "https://sh.5i5j.com/zufang/29038657.html",
        "fitment": "简装",
        "floor": "中",
        "hallType": "0",
        "houseID": "8693658",
        "houseResourceType": "1",
        "logoSrc": "../img/5i5j.png",
        "price": "4200",
        "regionName": "徐汇",
        "rentType": "整租",
        "roomType": "1",
        "shortCompanyName": "我爱我家"
      }
    ],
    "page": {
      "currentPage": 1,
      "nextPage": 2,
      "pageSize": 10,
      "prefPage": 1,
      "total": 34712,
      "totalPages": 3472
    }
  },
  "errorCode": "1",
  "success": false
}